<svg width="22" height="14" viewBox="0 0 22 14" fill="none" xmlns="http://www.w3.org/2000/svg">
<path d="M0 1H22" stroke="#323336"/>
<path d="M0 7H22" stroke="#323336"/>
<path d="M0 13H22" stroke="#323336"/>
<path d="M0 1H21.5111" stroke="#323336"/>
<path d="M0 7H21.5111" stroke="#323336"/>
<path d="M0 13H21.5111" stroke="#323336"/>
</svg>
